<?xml version="1.0" encoding="UTF-8"?>
<!DOCTYPE svg PUBLIC "-//W3C//DTD SVG 1.1//EN" "http://www.w3.org/Graphics/SVG/1.1/DTD/svg11.dtd">
<svg version="1.1" xmlns="http://www.w3.org/2000/svg" xmlns:xlink="http://www.w3.org/1999/xlink" x="0" y="0" width="32" height="32" viewBox="0, 0, 64, 64">
  <defs>
    <filter id="Shadow_1">
      <feGaussianBlur in="SourceAlpha" stdDeviation="1"/>
      <feOffset dx="0" dy="2" result="offsetblur"/>
      <feFlood flood-color="#000000"/>
      <feComposite in2="offsetblur" operator="in"/>
    </filter>
  </defs>
  <g id="Layer_1">
    <g>
      <path d="M32.5,4.097 C48.551,4.097 61.585,16.8 61.585,32.5 C61.585,48.2 48.551,60.903 32.5,60.903 C16.449,60.903 3.415,48.2 3.415,32.5 C3.415,16.8 16.449,4.097 32.5,4.097 z" filter="url(#Shadow_1)" fill="rgba(0,0,0,0.75)"/>
      <path d="M32.5,58.653 C17.679,58.653 5.665,46.944 5.665,32.5 C5.665,18.056 17.679,6.347 32.5,6.347 C47.321,6.347 59.335,18.056 59.335,32.5 C59.335,46.944 47.321,58.653 32.5,58.653 z" fill="#000000"/>
      <path d="M32.5,58.653 C17.679,58.653 5.665,46.944 5.665,32.5 C5.665,18.056 17.679,6.347 32.5,6.347 C47.321,6.347 59.335,18.056 59.335,32.5 C59.335,46.944 47.321,58.653 32.5,58.653 z" fill-opacity="0" stroke="#FFFFFF" stroke-width="4.5"/>
    </g>
  </g>
  <g id="Layer_2">
    <path d="M20.5,20.5 L44.5,44.5" fill-opacity="0" stroke="#FFFFFF" stroke-width="4.5" stroke-linecap="round"/>
    <path d="M44.5,20.5 L20.5,44.5" fill-opacity="0" stroke="#FFFFFF" stroke-width="4.5" stroke-linecap="round"/>
  </g>
</svg>
